HUD frame time nsec:,16667000

Range Index,Elapsed Time, First Event,Last Event
0,14784,2,2
1,11296,4,4
2,137824,23,23
3,8864,31,31
4,38752,65,65
5,67072,88,88
6,6528,111,111
7,736,134,134
8,6848,160,160
9,14472480,171,171
