HUD frame time nsec:,16667000

Range Index,Elapsed Time, First Event,Last Event
0,14656,2,2
1,11360,4,4
2,122368,23,23
3,8512,31,31
4,40096,65,65
5,51968,88,88
6,15968,111,111
7,992,134,134
8,6720,160,160
9,14778816,172,172
