HUD frame time nsec:,16662000

Range Index,Elapsed Time, First Event,Last Event
0,7680,1,1
1,7520,21,21
2,736,32,32
3,736,43,43
4,928,54,54
5,736,65,65
6,928,76,76
7,704,87,87
8,704,98,98
9,736,109,109
10,704,120,120
11,736,131,131
12,736,142,142
13,15714656,154,154
