HUD frame time nsec:,16666000

Range Index,Elapsed Time, First Event,Last Event
0,7200,2,2
1,24800,23,23
2,14464,65,65
3,146816,82,82
4,736,102,102
5,736,111,111
6,736,120,120
7,768,129,129
8,768,137,137
9,58528,169,169
10,21024,195,195
11,23520,206,206
12,20128,216,216
13,19680,226,226
14,19936,236,236
15,19488,246,246
16,19520,256,256
17,19456,266,266
18,19584,276,276
19,19168,286,286
20,7008,291,291
21,17216,305,305
22,736,330,330
23,14189728,350,350
