HUD frame time nsec:,16667000

Range Index,Elapsed Time, First Event,Last Event
0,6560,2,2
1,45952,19,19
2,736,40,40
3,736,49,49
4,768,58,58
5,736,67,67
6,704,75,75
7,9472,83,83
8,110208,116,116
9,5600,290,290
10,120288,457,457
11,704,466,466
12,832,475,475
13,736,484,484
14,736,492,492
15,5024,498,498
16,45600,514,514
17,4000,520,520
18,40576,536,536
19,9664,541,541
20,27840,555,555
21,736,580,580
22,14353152,600,600
