HUD frame time nsec:,16666000

Range Index,Elapsed Time, First Event,Last Event
0,7136,2,2
1,15840,23,23
2,20416,44,44
3,19680,63,63
4,19776,72,72
5,19648,81,81
6,19264,90,90
7,19360,99,99
8,19488,108,108
9,19488,117,117
10,19136,126,126
11,19232,135,135
12,3456,141,141
13,23680,157,157
14,7296,162,162
15,24544,176,176
16,736,201,201
17,14267200,221,221
