HUD frame time nsec:,16667000

Range Index,Elapsed Time, First Event,Last Event
0,9824,2,2
1,79776,35,35
2,4448,263,263
3,8224,376,376
4,704,385,385
5,704,394,394
6,704,403,403
7,736,411,411
8,5024,417,417
9,38912,433,433
10,10464,438,438
11,32192,452,452
12,768,464,464
13,14437824,480,480
