HUD frame time nsec:,16658000

Range Index,Elapsed Time, First Event,Last Event
0,6976,2,2
1,18048,21,21
2,134112,69,69
3,736,115,115
4,736,170,170
5,7360,176,176
6,17024,188,188
7,704,211,211
8,14678720,231,231
