HUD frame time nsec:,16667000

Range Index,Elapsed Time, First Event,Last Event
0,8224,2,2
1,15936,21,21
2,65408,67,67
3,8768,483,483
4,3008,551,551
5,736,558,558
6,736,565,565
7,736,572,572
8,736,578,578
9,20512,595,595
10,165152,616,616
11,160448,625,625
12,162240,634,634
13,162048,643,643
14,161920,652,652
15,159744,661,661
16,162976,670,670
17,160192,679,679
18,161696,688,688
19,160928,697,697
20,162496,706,706
21,163392,715,715
22,23424,736,736
23,4288,742,742
24,23712,756,756
25,7264,761,761
26,18080,773,773
27,704,796,796
28,11600320,816,816
