HUD frame time nsec:,16667000

Range Index,Elapsed Time, First Event,Last Event
0,12032,2,2
1,103008,35,35
2,7264,101,101
3,768,221,221
4,8288,388,388
5,736,397,397
6,704,406,406
7,736,415,415
8,736,423,423
9,14975264,435,435
