HUD frame time nsec:,16667000

Range Index,Elapsed Time, First Event,Last Event
0,6336,2,2
1,53536,19,19
2,736,40,40
3,736,49,49
4,736,58,58
5,736,67,67
6,736,75,75
7,9472,83,83
8,93280,116,116
9,192672,445,445
10,704,454,454
11,736,463,463
12,736,472,472
13,704,480,480
14,4928,486,486
15,45696,502,502
16,3840,508,508
17,40992,524,524
18,10080,529,529
19,29792,543,543
20,704,568,568
21,14040384,588,588
