HUD frame time nsec:,16659000

Range Index,Elapsed Time, First Event,Last Event
0,7104,2,2
1,15680,21,21
2,3552,29,29
3,26688,43,43
4,20448,60,60
5,159328,81,81
6,165728,90,90
7,159424,99,99
8,159904,108,108
9,161344,117,117
10,160768,126,126
11,161920,135,135
12,159008,144,144
13,161408,153,153
14,160224,162,162
15,164192,171,171
16,160672,180,180
17,22560,201,201
18,6944,206,206
19,17216,218,218
20,736,241,241
21,12647456,261,261
