HUD frame time nsec:,16667000

Range Index,Elapsed Time, First Event,Last Event
0,6336,2,2
1,51616,19,19
2,736,40,40
3,736,49,49
4,704,58,58
5,736,67,67
6,736,75,75
7,9280,83,83
8,107552,116,116
9,5184,371,371
10,104128,457,457
11,736,466,466
12,736,475,475
13,736,484,484
14,704,492,492
15,5024,498,498
16,45632,514,514
17,3840,520,520
18,40768,536,536
19,10112,541,541
20,28416,555,555
21,736,580,580
22,13936352,600,600
