HUD frame time nsec:,16667000

Range Index,Elapsed Time, First Event,Last Event
0,9632,2,2
1,14080,31,31
2,139008,48,48
3,7104,69,69
4,736,78,78
5,768,87,87
6,736,96,96
7,768,104,104
8,92128,131,131
9,40896,191,191
10,768,200,200
11,768,209,209
12,736,218,218
13,768,226,226
14,7424,232,232
15,30880,248,248
16,9344,253,253
17,28768,267,267
18,800,292,292
19,14222912,312,312
