HUD frame time nsec:,16669000

Range Index,Elapsed Time, First Event,Last Event
0,7232,2,2
1,15776,23,23
2,20672,44,44
3,37216,63,63
4,37472,81,81
5,36384,99,99
6,36768,117,117
7,36384,135,135
8,36704,153,153
9,36608,171,171
10,36608,189,189
11,36320,207,207
12,7072,212,212
13,17088,226,226
14,736,251,251
15,14721056,271,271
