HUD frame time nsec:,16666000

Range Index,Elapsed Time, First Event,Last Event
0,7744,2,2
1,44416,19,19
2,1024,40,40
3,736,49,49
4,736,58,58
5,736,67,67
6,704,75,75
7,12768,83,83
8,77408,116,116
9,6144,371,371
10,155488,457,457
11,704,466,466
12,736,475,475
13,704,484,484
14,736,492,492
15,5888,498,498
16,44960,514,514
17,3840,520,520
18,40672,536,536
19,9856,541,541
20,28576,555,555
21,736,580,580
22,14238592,600,600
