HUD frame time nsec:,16667000

Range Index,Elapsed Time, First Event,Last Event
0,7104,2,2
1,15360,23,23
2,20544,44,44
3,38464,65,65
4,41024,74,74
5,37696,83,83
6,37184,92,92
7,37248,101,101
8,37344,110,110
9,37280,119,119
10,37248,128,128
11,37184,137,137
12,3520,143,143
13,23456,159,159
14,7008,164,164
15,18048,178,178
16,704,203,203
17,14413888,223,223
