HUD frame time nsec:,16667000

Range Index,Elapsed Time, First Event,Last Event
0,6368,2,2
1,45568,19,19
2,1024,40,40
3,736,49,49
4,736,58,58
5,736,67,67
6,736,75,75
7,9376,83,83
8,85984,116,116
9,305472,445,445
10,704,454,454
11,736,463,463
12,736,472,472
13,736,480,480
14,5088,486,486
15,45664,502,502
16,3872,508,508
17,40704,524,524
18,9760,529,529
19,28960,543,543
20,704,568,568
21,13683136,588,588
