HUD frame time nsec:,16666000

Range Index,Elapsed Time, First Event,Last Event
0,8256,2,2
1,16384,23,23
2,22016,44,44
3,3424,50,50
4,23744,66,66
5,7296,71,71
6,25088,85,85
7,704,110,110
8,15226592,130,130
