HUD frame time nsec:,16667000

Range Index,Elapsed Time, First Event,Last Event
0,7680,2,2
1,96448,35,35
2,7296,364,364
3,704,373,373
4,704,382,382
5,736,391,391
6,736,399,399
7,4992,405,405
8,36704,421,421
9,8448,426,426
10,25600,440,440
11,704,452,452
12,14558784,468,468
