HUD frame time nsec:,16667000

Range Index,Elapsed Time, First Event,Last Event
0,14496,2,2
1,61824,23,23
2,173088,61,61
3,864,129,129
4,768,253,253
5,4736,427,427
6,704,436,436
7,704,445,445
8,736,454,454
9,736,462,462
10,736,502,502
11,29248,507,507
12,69856,521,521
13,832,546,546
14,13633024,566,566
