HUD frame time nsec:,16667000

Range Index,Elapsed Time, First Event,Last Event
0,7200,2,2
1,15552,23,23
2,20576,44,44
3,135200,65,65
4,137760,74,74
5,134784,83,83
6,134496,92,92
7,134112,101,101
8,134176,110,110
9,133184,119,119
10,134208,128,128
11,133696,137,137
12,3584,143,143
13,23424,159,159
14,7040,164,164
15,17920,178,178
16,736,203,203
17,13449344,223,223
