HUD frame time nsec:,16669000

Range Index,Elapsed Time, First Event,Last Event
0,9984,2,2
1,93696,35,35
2,3424,236,236
3,243744,376,376
4,704,385,385
5,704,394,394
6,736,403,403
7,704,411,411
8,4928,417,417
9,27936,433,433
10,9856,438,438
11,16416,452,452
12,736,477,477
13,6912,489,489
14,46144,506,506
15,14048576,522,522
