HUD frame time nsec:,16667000

Range Index,Elapsed Time, First Event,Last Event
0,7200,2,2
1,15584,23,23
2,4768,44,44
3,2112,55,55
4,1728,65,65
5,1696,75,75
6,1696,85,85
7,1696,95,95
8,1696,105,105
9,1696,115,115
10,1696,125,125
11,1696,135,135
12,7008,140,140
13,17344,154,154
14,704,179,179
15,14870304,199,199
