HUD frame time nsec:,16669000

Range Index,Elapsed Time, First Event,Last Event
0,7200,2,2
1,15456,23,23
2,20832,44,44
3,23072,55,55
4,19936,65,65
5,19200,75,75
6,19424,85,85
7,19648,95,95
8,19584,105,105
9,19712,115,115
10,19616,125,125
11,19200,135,135
12,6976,140,140
13,17568,154,154
14,704,179,179
15,14646624,199,199
