HUD frame time nsec:,16666000

Range Index,Elapsed Time, First Event,Last Event
0,7168,2,2
1,15808,21,21
2,20480,40,40
3,171104,62,62
4,165312,71,71
5,160224,80,80
6,161152,89,89
7,160576,98,98
8,161632,107,107
9,160032,116,116
10,163392,125,125
11,160128,134,134
12,160064,143,143
13,160544,152,152
14,161536,161,161
15,22336,183,183
16,3520,189,189
17,22368,203,203
18,6816,208,208
19,17056,220,220
20,736,243,243
21,12073248,263,263
