HUD frame time nsec:,16667000

Range Index,Elapsed Time, First Event,Last Event
0,7200,2,2
1,15936,23,23
2,20384,44,44
3,22816,55,55
4,19968,65,65
5,19520,75,75
6,19200,85,85
7,19680,95,95
8,19520,105,105
9,19648,115,115
10,19456,125,125
11,19296,135,135
12,6976,140,140
13,17152,154,154
14,736,179,179
15,14562848,199,199
