HUD frame time nsec:,16667000

Range Index,Elapsed Time, First Event,Last Event
0,9888,2,2
1,704,18,18
2,18848,51,51
3,141568,68,68
4,105216,82,82
5,80352,91,91
6,82048,100,100
7,318752,109,109
8,704,117,117
9,133440,149,149
10,12352,212,212
11,736,221,221
12,736,230,230
13,736,239,239
14,704,247,247
15,9664,252,252
16,28192,266,266
17,768,291,291
18,13029088,311,311
