HUD frame time nsec:,16667000

Range Index,Elapsed Time, First Event,Last Event
0,7296,2,2
1,15136,23,23
2,20512,44,44
3,28288,65,65
4,27200,74,74
5,26944,83,83
6,26720,92,92
7,27232,101,101
8,27008,110,110
9,27232,119,119
10,27072,128,128
11,27008,137,137
12,6912,142,142
13,17504,156,156
14,704,181,181
15,14412192,201,201
