HUD frame time nsec:,16668000

Range Index,Elapsed Time, First Event,Last Event
0,7008,2,2
1,18912,21,21
2,88416,69,69
3,736,115,115
4,736,170,170
5,7296,176,176
6,17024,188,188
7,736,211,211
8,14744960,231,231
