HUD frame time nsec:,16666000

Range Index,Elapsed Time, First Event,Last Event
0,7776,2,2
1,46624,19,19
2,1504,40,40
3,736,49,49
4,704,58,58
5,704,67,67
6,704,75,75
7,12832,83,83
8,87424,116,116
9,159616,445,445
10,736,454,454
11,704,463,463
12,736,472,472
13,704,480,480
14,5888,486,486
15,44800,502,502
16,3840,508,508
17,40640,524,524
18,13344,529,529
19,27488,543,543
20,736,568,568
21,13730432,588,588
