HUD frame time nsec:,16668000

Range Index,Elapsed Time, First Event,Last Event
0,6336,2,2
1,45760,19,19
2,1216,40,40
3,736,49,49
4,736,58,58
5,736,67,67
6,736,75,75
7,9376,83,83
8,93536,116,116
9,2656,209,209
10,768,248,248
11,6112,287,287
12,126560,481,481
13,736,490,490
14,736,499,499
15,736,508,508
16,704,516,516
17,4992,522,522
18,45952,538,538
19,3840,544,544
20,41440,560,560
21,9760,565,565
22,30112,579,579
23,736,604,604
24,14054464,624,624
