HUD frame time nsec:,16667000

Range Index,Elapsed Time, First Event,Last Event
0,14592,2,2
1,139392,19,19
2,704,40,40
3,704,49,49
4,736,58,58
5,736,67,67
6,736,75,75
7,9472,83,83
8,122592,116,116
9,39072,445,445
10,736,454,454
11,704,463,463
12,704,472,472
13,704,480,480
14,4800,486,486
15,45664,502,502
16,3840,508,508
17,41440,524,524
18,10016,529,529
19,28896,543,543
20,768,568,568
21,14069536,588,588
