HUD frame time nsec:,33334000

Range Index,Elapsed Time, First Event,Last Event
0,14496,2,2
1,63456,21,21
2,150144,67,67
3,23232,447,447
4,66112,464,464
5,785376,485,485
6,775712,494,494
7,780064,503,503
8,771008,512,512
9,774016,521,521
10,772512,530,530
11,771200,539,539
12,762976,548,548
13,778304,557,557
14,776896,566,566
15,786336,575,575
16,767200,584,584
17,777824,593,593
18,761632,602,602
19,761600,611,611
20,766912,620,620
21,769536,629,629
22,763712,638,638
23,807296,647,647
24,771072,656,656
25,75136,677,677
26,27552,682,682
27,67616,694,694
28,704,717,717
29,14951104,737,737
