HUD frame time nsec:,16667000

Range Index,Elapsed Time, First Event,Last Event
0,6336,2,2
1,45312,19,19
2,1024,40,40
3,704,49,49
4,704,58,58
5,736,67,67
6,704,75,75
7,9312,83,83
8,86208,116,116
9,1984,344,344
10,159808,457,457
11,704,466,466
12,704,475,475
13,736,484,484
14,736,492,492
15,4992,498,498
16,45888,514,514
17,3872,520,520
18,40928,536,536
19,9824,541,541
20,28928,555,555
21,736,580,580
22,14178976,600,600
