HUD frame time nsec:,16668000

Range Index,Elapsed Time, First Event,Last Event
0,7104,2,2
1,19008,21,21
2,61952,69,69
3,5024,115,115
4,736,170,170
5,7328,176,176
6,16704,188,188
7,736,211,211
8,15207808,231,231
