HUD frame time nsec:,16668000

Range Index,Elapsed Time, First Event,Last Event
0,7168,2,2
1,15456,23,23
2,20576,44,44
3,8160,55,55
4,4768,65,65
5,4832,75,75
6,4640,85,85
7,4704,95,95
8,4672,105,105
9,4800,115,115
10,4768,125,125
11,4672,135,135
12,7328,140,140
13,16704,154,154
14,736,179,179
15,14843744,199,199
