HUD frame time nsec:,16665000

Range Index,Elapsed Time, First Event,Last Event
0,7360,2,2
1,16704,21,21
2,141408,69,69
3,800,115,115
4,736,170,170
5,20896,188,188
6,168448,209,209
7,164352,218,218
8,162304,227,227
9,159456,236,236
10,163072,245,245
11,159648,254,254
12,161152,263,263
13,158656,272,272
14,162688,281,281
15,160736,290,290
16,160896,299,299
17,159648,308,308
18,162624,317,317
19,159904,326,326
20,163200,335,335
21,162048,344,344
22,162144,353,353
23,160288,362,362
24,160032,371,371
25,161728,380,380
26,23200,401,401
27,7296,406,406
28,16768,418,418
29,736,441,441
30,10512576,461,461
