HUD frame time nsec:,16667000

Range Index,Elapsed Time, First Event,Last Event
0,16416,2,2
1,57792,23,23
2,21120,57,57
3,139008,74,74
4,2368,88,88
5,2304,97,97
6,9760,106,106
7,2176,115,115
8,2560,123,123
9,302592,155,155
10,8992,218,218
11,5280,227,227
12,2656,236,236
13,2560,245,245
14,2272,253,253
15,8832,259,259
16,92448,275,275
17,28800,280,280
18,85280,294,294
19,2464,319,319
20,11548896,339,339
