HUD frame time nsec:,16666000

Range Index,Elapsed Time, First Event,Last Event
0,7328,2,2
1,20416,23,23
2,82592,69,69
3,4224,231,231
4,21024,461,461
5,20768,480,480
6,135584,501,501
7,137696,510,510
8,133760,519,519
9,134656,528,528
10,134112,537,537
11,133536,546,546
12,135136,555,555
13,134080,564,564
14,133440,573,573
15,3136,579,579
16,130592,597,597
17,7008,602,602
18,16736,616,616
19,736,641,641
20,13276192,661,661
