HUD frame time nsec:,16668000

Range Index,Elapsed Time, First Event,Last Event
0,9472,2,2
1,14144,31,31
2,139296,48,48
3,7904,69,69
4,736,78,78
5,736,87,87
6,832,96,96
7,736,104,104
8,79520,131,131
9,170912,191,191
10,736,200,200
11,736,209,209
12,736,218,218
13,928,226,226
14,6912,232,232
15,32160,248,248
16,9376,253,253
17,28544,267,267
18,736,292,292
19,13957696,312,312
