HUD frame time nsec:,16668000

Range Index,Elapsed Time, First Event,Last Event
0,9920,2,2
1,84544,35,35
2,4960,101,101
3,3968,167,167
4,10720,388,388
5,736,397,397
6,736,406,406
7,736,415,415
8,704,423,423
9,5056,429,429
10,42528,445,445
11,9504,450,450
12,32448,464,464
13,736,489,489
14,14509664,509,509
