HUD frame time nsec:,16667000

Range Index,Elapsed Time, First Event,Last Event
0,9856,2,2
1,71680,35,35
2,2656,74,74
3,2912,194,194
4,6176,388,388
5,704,397,397
6,704,406,406
7,736,415,415
8,704,423,423
9,4960,429,429
10,36000,445,445
11,10336,450,450
12,27776,464,464
13,736,476,476
14,14919136,492,492
