HUD frame time nsec:,16667000

Range Index,Elapsed Time, First Event,Last Event
0,7168,2,2
1,15584,23,23
2,3552,38,38
3,16352,45,45
4,736,50,50
5,8096,57,57
6,4768,66,66
7,4576,75,75
8,4544,84,84
9,4640,93,93
10,4640,102,102
11,4512,111,111
12,4768,120,120
13,4416,129,129
14,7360,134,134
15,16640,148,148
16,704,173,173
17,14658976,193,193
