HUD frame time nsec:,16667000

Range Index,Elapsed Time, First Event,Last Event
0,7104,2,2
1,25120,21,21
2,18464,63,63
3,146656,80,80
4,768,98,98
5,736,105,105
6,736,112,112
7,736,119,119
8,736,125,125
9,59776,157,157
10,21120,181,181
11,4384,187,187
12,156576,204,204
13,165440,213,213
14,163488,222,222
15,164864,231,231
16,166720,240,240
17,165632,249,249
18,162976,258,258
19,165152,267,267
20,165728,276,276
21,164864,285,285
22,167712,294,294
23,166496,303,303
24,22336,324,324
25,8512,329,329
26,18112,341,341
27,768,364,364
28,12124768,384,384
