HUD frame time nsec:,16666000

Range Index,Elapsed Time, First Event,Last Event
0,11520,2,2
1,156672,35,35
2,1824,317,317
3,8288,376,376
4,704,385,385
5,736,394,394
6,736,403,403
7,704,411,411
8,15041760,423,423
