HUD frame time nsec:,16666000

Range Index,Elapsed Time, First Event,Last Event
0,9824,2,2
1,86272,35,35
2,5632,209,209
3,11456,376,376
4,704,385,385
5,736,394,394
6,704,403,403
7,704,411,411
8,5024,417,417
9,43712,433,433
10,9888,438,438
11,736,456,456
12,14539744,472,472
