HUD frame time nsec:,16667000

Range Index,Elapsed Time, First Event,Last Event
0,11040,2,2
1,14144,32,32
2,139456,49,49
3,12832,70,70
4,800,79,79
5,768,88,88
6,704,97,97
7,736,105,105
8,87744,134,134
9,44512,195,195
10,736,204,204
11,736,213,213
12,704,222,222
13,736,230,230
14,14695072,242,242
