HUD frame time nsec:,16667000

Range Index,Elapsed Time, First Event,Last Event
0,7392,2,2
1,15136,21,21
2,20704,40,40
3,2176,45,45
4,166656,62,62
5,167936,71,71
6,161632,80,80
7,161536,89,89
8,160192,98,98
9,161920,107,107
10,159808,116,116
11,160544,125,125
12,159968,134,134
13,161536,143,143
14,161952,152,152
15,160384,161,161
16,22368,182,182
17,3552,188,188
18,22368,202,202
19,6976,207,207
20,17184,219,219
21,736,242,242
22,12441312,262,262
