HUD frame time nsec:,16669000

Range Index,Elapsed Time, First Event,Last Event
0,6336,2,2
1,45024,19,19
2,1024,40,40
3,704,49,49
4,704,58,58
5,736,67,67
6,736,75,75
7,9472,83,83
8,87136,116,116
9,3744,344,344
10,152576,457,457
11,704,466,466
12,704,475,475
13,704,484,484
14,736,492,492
15,4928,498,498
16,45568,514,514
17,3840,520,520
18,40960,536,536
19,10176,541,541
20,28576,555,555
21,736,580,580
22,14130080,600,600
