HUD frame time nsec:,16667000

Range Index,Elapsed Time, First Event,Last Event
0,12032,2,2
1,143648,35,35
2,2592,155,155
3,8160,376,376
4,704,385,385
5,736,394,394
6,736,403,403
7,736,411,411
8,14910304,423,423
