HUD frame time nsec:,16666000

Range Index,Elapsed Time, First Event,Last Event
0,7200,2,2
1,16064,23,23
2,11936,44,44
3,3488,50,50
4,23808,66,66
5,7456,71,71
6,24192,85,85
7,736,110,110
8,14828352,130,130
