HUD frame time nsec:,33334000

Range Index,Elapsed Time, First Event,Last Event
0,14336,2,2
1,61920,21,21
2,711392,69,69
3,17408,116,116
4,67584,134,134
5,759776,155,155
6,746496,164,164
7,752544,173,173
8,751200,182,182
9,755616,191,191
10,752192,200,200
11,766144,209,209
12,744096,218,218
13,755424,227,227
14,743968,236,236
15,755744,245,245
16,734816,254,254
17,754720,263,263
18,746592,272,272
19,754816,281,281
20,746176,290,290
21,753760,299,299
22,752864,308,308
23,786336,317,317
24,873408,326,326
25,81760,347,347
26,28256,352,352
27,68928,364,364
28,768,387,387
29,14876096,407,407
