HUD frame time nsec:,16667000

Range Index,Elapsed Time, First Event,Last Event
0,14528,2,2
1,139456,19,19
2,5888,40,40
3,704,49,49
4,768,58,58
5,768,67,67
6,736,75,75
7,9248,83,83
8,85376,116,116
9,6688,155,155
10,704,275,275
11,41120,469,469
12,736,478,478
13,736,487,487
14,704,496,496
15,704,504,504
16,4800,510,510
17,45792,526,526
18,3872,532,532
19,40672,548,548
20,10016,553,553
21,28096,567,567
22,864,592,592
23,13733152,612,612
