HUD frame time nsec:,16667000

Range Index,Elapsed Time, First Event,Last Event
0,7168,2,2
1,15456,23,23
2,20096,44,44
3,20640,63,63
4,19840,72,72
5,19488,81,81
6,19296,90,90
7,19360,99,99
8,19424,108,108
9,19264,117,117
10,19872,126,126
11,19360,135,135
12,6944,140,140
13,17152,154,154
14,704,179,179
15,14623296,199,199
