HUD frame time nsec:,16668000

Range Index,Elapsed Time, First Event,Last Event
0,9824,2,2
1,92256,35,35
2,2496,155,155
3,8320,376,376
4,736,385,385
5,736,394,394
6,736,403,403
7,704,411,411
8,5024,417,417
9,37184,433,433
10,10080,438,438
11,28704,452,452
12,736,464,464
13,14666656,480,480

Range Index,Elapsed Time, First Event,Last Event
0,13312,2,2
1,92160,35,35
2,6880,155,155
3,8800,376,376
4,704,385,385
5,704,394,394
6,736,403,403
7,704,411,411
8,5856,417,417
9,35904,433,433
10,14400,438,438
11,27456,452,452
12,736,464,464
13,13775552,480,480

Range Index,Elapsed Time, First Event,Last Event
0,91232,35,35
1,6720,155,155
2,8448,376,376
3,704,385,385
4,736,394,394
5,736,403,403
6,736,411,411
7,37184,433,433
8,28288,452,452
9,704,464,464

Range Index,Elapsed Time, First Event,Last Event,gpu__draw_count,Cycles,smsp__inst_executed_fs_pct,Cycles,smsp__inst_executed_vs_pct,Cycles,DispatchLaunchDimZAvg,Cycles,ia__prim_count,Cycles,sm__busy_pct_avg,Cycles,DispatchLaunchDimXAvg,Cycles,gpu__shaded_fragments,Cycles,lts__request_tex_read_utilization_pct,Cycles,gpu__dispatch_count,Cycles,smsp__inst_executed_cs_sum,Cycles,DispatchLaunchDimYAvg,Cycles,DispatchTotalThreads,Cycles,DispatchKernelDimXAvg,Cycles,sm__sol_pct,Cycles,DispatchKernelDimYAvg,Cycles,sm__tex_utilization_pct,Cycles,DispatchKernelDimZAvg,Cycles,smsp__inst_executed_tcs_pct,Cycles,fbpa__sol_pct,Cycles,smsp__inst_executed_cs_pct,Cycles,smsp__inst_executed_tes_pct,Cycles,smsp__inst_executed_gs_pct,Cycles,ia__sol_pct,Cycles,tex__sol_pct,Cycles,ia__busy_pct_avg,Cycles,tex__busy_pct_avg,Cycles,ltc__sol_pct,Cycles,lts__busy_pct_avg,Cycles,crop__sol_pct,Cycles,crop__busy_pct_avg,Cycles,zrop__sol_pct,Cycles,zrop__busy_pct_avg,Cycles,fbpa__busy_pct_avg,Cycles,lts__request_ia_read_utilization_pct,Cycles,tex__sm_utilization_pct,Cycles,lts__request_tex_write_utilization_pct,Cycles,xfb__lts_utilization_pct,Cycles,crop__lts_write_utilization_pct,Cycles,zrop__lts_write_utilization_pct,Cycles,crop__lts_read_utilization_pct,Cycles,zrop__lts_read_utilization_pct,Cycles,dram__write_pct,Cycles,dram__read_pct,Cycles,lts__request_total_sectors_hitrate_pct,Cycles
0,455264,35,464,10,1,75.1903,1,24.8016,1,0,1,133837,1,34.2349,1,0,1,2.19752e+006,1,9.25679,1,0,1,0,1,0,1,0,1,0,1,16.0163,1,0,1,3.17851,1,0,1,0,1,17.3599,1,0,1,0,1,0.0224538,1,8.5186,1,4.6666,1,19.3171,1,25.6811,1,16.424,1,0,1,15.3138,1,15.1151,1,9.90942,1,22.7928,1,1.#QNAN,1,2.35065,1,3.14185,1,0,1,0,1,11.3657,1,4.49477,1,0.970384,1,1.98533,1,9.59972,1,7.76017,1,86.9689,1

Range Index,Elapsed Time, First Event,Last Event
0,10016,2,2
1,89600,35,35
2,8352,263,263
3,704,302,302
4,15360,388,388
5,736,397,397
6,704,406,406
7,704,415,415
8,736,423,423
9,4992,429,429
10,36224,445,445
11,10464,450,450
12,27168,464,464
13,736,476,476
14,14679552,492,492
