HUD frame time nsec:,16665000

Range Index,Elapsed Time, First Event,Last Event
0,7200,2,2
1,24608,21,21
2,21120,63,63
3,122784,80,80
4,704,90,90
5,704,96,96
6,704,102,102
7,736,108,108
8,736,114,114
9,704,120,120
10,704,126,126
11,704,132,132
12,704,138,138
13,736,144,144
14,832,150,150
15,704,156,156
16,736,162,162
17,736,168,168
18,736,174,174
19,704,180,180
20,704,186,186
21,736,192,192
22,736,198,198
23,736,204,204
24,736,210,210
25,736,216,216
26,768,222,222
27,736,228,228
28,111008,260,260
29,704,303,303
30,704,309,309
31,704,315,315
32,736,321,321
33,736,327,327
34,736,333,333
35,736,339,339
36,704,345,345
37,736,351,351
38,736,357,357
39,704,363,363
40,704,369,369
41,704,375,375
42,736,381,381
43,704,387,387
44,736,393,393
45,736,399,399
46,736,405,405
47,736,411,411
48,704,417,417
49,736,423,423
50,864,429,429
51,736,435,435
52,736,441,441
53,7360,446,446
54,17472,458,458
55,736,481,481
56,13250304,501,501

Range Index,Elapsed Time, First Event,Last Event
0,7168,2,2
1,25248,21,21
2,19808,63,63
3,122880,80,80
4,704,90,90
5,704,96,96
6,736,102,102
7,736,108,108
8,736,114,114
9,736,120,120
10,704,126,126
11,704,132,132
12,704,138,138
13,736,144,144
14,736,150,150
15,736,156,156
16,928,162,162
17,736,168,168
18,704,174,174
19,736,180,180
20,704,186,186
21,704,192,192
22,704,198,198
23,704,204,204
24,704,210,210
25,704,216,216
26,736,222,222
27,864,228,228
28,127488,260,260
29,7264,266,266
30,17376,278,278
31,704,301,301
32,12868960,321,321
